﻿﻿Kód;Název Okresu;Kód Kraje (VÚSC);Název Kraje (VÚSC)
3100;Hlavní město Praha;19;Hlavní město Praha
3201;Benešov;27;Středočeský kraj
3202;Beroun;27;Středočeský kraj
3203;Kladno;27;Středočeský kraj
3204;Kolín;27;Středočeský kraj
3205;Kutná Hora;27;Středočeský kraj
3206;Mělník;27;Středočeský kraj
3207;Mladá Boleslav;27;Středočeský kraj
3208;Nymburk;27;Středočeský kraj
3209;Praha-východ;27;Středočeský kraj
3210;Praha-západ;27;Středočeský kraj
3211;Příbram;27;Středočeský kraj
3212;Rakovník;27;Středočeský kraj
3301;České Budějovice;35;Jihočeský kraj
3302;Český Krumlov;35;Jihočeský kraj
3303;Jindřichův Hradec;35;Jihočeský kraj
3304;Pelhřimov;108;Kraj Vysočina
3305;Písek;35;Jihočeský kraj
3306;Prachatice;35;Jihočeský kraj
3307;Strakonice;35;Jihočeský kraj
3308;Tábor;35;Jihočeský kraj
3401;Domažlice;43;Plzeňský kraj
3402;Cheb;51;Karlovarský kraj
3403;Karlovy Vary;51;Karlovarský kraj
3404;Klatovy;43;Plzeňský kraj
3405;Plzeň-město;43;Plzeňský kraj
3406;Plzeň-jih;43;Plzeňský kraj
3407;Plzeň-sever;43;Plzeňský kraj
3408;Rokycany;43;Plzeňský kraj
3409;Sokolov;51;Karlovarský kraj
3410;Tachov;43;Plzeňský kraj
3501;Česká Lípa;78;Liberecký kraj
3502;Děčín;60;Ústecký kraj
3503;Chomutov;60;Ústecký kraj
3504;Jablonec nad Nisou;78;Liberecký kraj
3505;Liberec;78;Liberecký kraj
3506;Litoměřice;60;Ústecký kraj
3507;Louny;60;Ústecký kraj
3508;Most;60;Ústecký kraj
3509;Teplice;60;Ústecký kraj
3510;Ústí nad Labem;60;Ústecký kraj
3601;Havlíčkův Brod;108;Kraj Vysočina
3602;Hradec Králové;86;Královéhradecký kraj
3603;Chrudim;94;Pardubický kraj
3604;Jičín;86;Královéhradecký kraj
3605;Náchod;86;Královéhradecký kraj
3606;Pardubice;94;Pardubický kraj
3607;Rychnov nad Kněžnou;86;Královéhradecký kraj
3608;Semily;78;Liberecký kraj
3609;Svitavy;94;Pardubický kraj
3610;Trutnov;86;Královéhradecký kraj
3611;Ústí nad Orlicí;94;Pardubický kraj
3701;Blansko;116;Jihomoravský kraj
3702;Brno-město;116;Jihomoravský kraj
3703;Brno-venkov;116;Jihomoravský kraj
3704;Břeclav;116;Jihomoravský kraj
3705;Zlín;141;Zlínský kraj
3706;Hodonín;116;Jihomoravský kraj
3707;Jihlava;108;Kraj Vysočina
3708;Kroměříž;141;Zlínský kraj
3709;Prostějov;124;Olomoucký kraj
3710;Třebíč;108;Kraj Vysočina
3711;Uherské Hradiště;141;Zlínský kraj
3712;Vyškov;116;Jihomoravský kraj
3713;Znojmo;116;Jihomoravský kraj
3714;Žďár nad Sázavou;108;Kraj Vysočina
3801;Bruntál;132;Moravskoslezský kraj
3802;Frýdek-Místek;132;Moravskoslezský kraj
3803;Karviná;132;Moravskoslezský kraj
3804;Nový Jičín;132;Moravskoslezský kraj
3805;Olomouc;124;Olomoucký kraj
3806;Opava;132;Moravskoslezský kraj
3807;Ostrava-město;132;Moravskoslezský kraj
3808;Přerov;124;Olomoucký kraj
3809;Šumperk;124;Olomoucký kraj
3810;Vsetín;141;Zlínský kraj
3811;Jeseník;124;Olomoucký kraj
